[--28/10/2014--]
23:42:54,[Results - Ivan],Success,   DID: 1060675,  ivan.brewis@gmail.com,  Subject: On route sd ds

[--28/10/2014--]
23:51:33,[Results - Ivan],Success,   DID: 1060675,  ivan.brewis@gmail.com,  Subject: On route sd ds

23:53:28,[Results - Ivan],Success,   DID: 1060675,  ivan.brewis@gmail.com,  Subject: On route sd ds

[--28/10/2014--]
23:58:03,[Results - Ivan],Success,   DID: 1060675,  ivan.brewis@gmail.com,  Subject: [TEST SYS]On route sd ds

[--29/10/2014--]
 0:39:11,[Results - Ivan],Success,   DID: 1060675,  ivan.brewis@gmail.com,  Subject: [TEST SYS]

[--29/10/2014--]
 0:41:51,[Results - Ivan],Success,   DID: 1060675,  ivan.brewis@gmail.com,  Subject: [TEST SYS]

 0:42:15,[Results - Ivan],Success,   DID: 1060675,  ivan.brewis@gmail.com,  Subject: [TEST SYS]

[--29/10/2014--]
 0:43:58,[Results - Ivan],Success,   DID: 1060675,  ivan.brewis@gmail.com,  Subject: [TEST SYS]

[--29/10/2014--]
 0:47:08,[Results - Ivan],Success,   DID: 1060675,  ivan.brewis@gmail.com,  Subject: [TEST SYS]On route - Overnight subj

[--29/10/2014--]
 0:53:07,[Results - Ivan],Success,   DID: 1060675,  ivan.brewis@gmail.com,  Subject: [TEST SYS]On route - Overnight subj

[--29/10/2014--]
 0:55:15,[Results - Ivan],Success,   DID: 1060675,  ivan.brewis@gmail.com,  Subject: [TEST SYS]On route - Overnight subj  ALPHA PLAST CC

[--29/10/2014--]
 0:56:33,[Results - Ivan],Success,   DID: 1060675,  fbndev@infosolutions.co.uk,  Subject: [TEST SYS]On route - Overnight subj  ALPHA PLAST CC

[--29/10/2014--]
12:33:47,[Results - Ivan],Success,   DID: 1060675,  fbndev@infosolutions.co.uk,  Subject: [TEST SYS]On route - Overnight subj  ALPHA PLAST CC

12:34:54,[Results - Ivan],Success,   DID: 1060675,  fbndev@infosolutions.co.uk,  Subject: [TEST SYS]FBN Inter Branch Update 2907365 - ALPHA PLAST CC

12:37:15,[Results - Ivan],Success,   DID: 1060675,  fbndev@infosolutions.co.uk,  Subject: [TEST SYS]FBN Inter Branch Update 2907365 - ALPHA PLAST CC

[--16/11/2014--]
22:19:26,[Results of Email Notifications],Success,   DID: 76597,  ivan.brewis@gmail.com,  Subject: On route sd ds

22:20:27,[Results of Email Notifications],Success,   DID: 76597,  ivan.brewis@gmail.com,  Subject: Transferred for DI: 252754

[--16/11/2014--]
22:26:08,[Results of Email Notifications],Success,   DID: 76597,  ivan.brewis@gmail.com,  Subject: On Delivery

22:27:59,[Results of Email Notifications],Success,   DID: 76597,  ivan.brewis@gmail.com,  Subject: Delivered

22:30:46,[Results of Email Notifications],Success,   DID: 76597,  ivan.brewis@gmail.com,  Subject: Delivered

[--16/11/2014--]
22:38:57,[Results - Ivan],Success,   DID: 76597,  ivan.brewis@gmail.com,  Subject: [TEST SYS]

22:40:30,[Results - Ivan],Success,   DID: 76597,  ivan.brewis@gmail.com,  Subject: [TEST SYS]

[--16/11/2014--]
22:42:35,[Results - Ivan],Success,   DID: 76597,  ivan.brewis@gmail.com,  Subject: [TEST SYS]

[--16/11/2014--]
22:47:29,[Results - Ivan],Success,   DID: 76597,  ivan.brewis@gmail.com,  Subject: [TEST SYS][Branch (DI)] Delivery Update 252754 - TSI CENTRAL STATION (PTY) LTD 26577 Delivered at   0:00 16/11/2014

22:48:29,[Results - Ivan],Success,   DID: 76597,  ivan.brewis@gmail.com,  Subject: [TEST SYS]FBN Johannesburg Delivery Update 252754 - TSI CENTRAL STATION (PTY) LTD 26577 Delivered at   0:00 16/11/2014

22:54:59,[Results - Ivan],Success,   DID: 76597,  ivan.brewis@gmail.com,  Subject: [TEST SYS]Cape Town Delivery Update 252754 - TSI CENTRAL STATION (PTY) LTD 26577 Delivered at   0:59 16/11/2014

[--16/11/2014--]
22:56:02,[Results - Ivan],Success,   DID: 76597,  ivan.brewis@gmail.com,  Subject: [TEST SYS]FBN Johannesburg Delivery Update 252754 - TSI CENTRAL STATION (PTY) LTD 26577 Delivered at   0:59 16/11/2014

[--30/07/2015--]
12:47:39,[Results - Ivan],Success,   DID: 1071103,  ivan.brewis@gmail.com,  Subject: FBN Inter Branch Update 254696099 - ARROW BULK LOGISTICS (PTY) LTD 123123123

22:38:03,[Results - Ivan],Success,   DID: 1071103,  ivan.brewis@gmail.com,  Subject: FBN Inter Branch Update 254696099 - ARROW BULK LOGISTICS (PTY) LTD 123123123

22:41:43,[Results - Ivan],Success,   DID: 1071103,  ivan.brewis@gmail.com,  Subject: FBN Inter Branch Update 254696099 - ARROW BULK LOGISTICS (PTY) LTD 123123123

22:44:02,[Results - Ivan],Success,   DID: 1071103,  ivan.brewis@gmail.com,  Subject: FBN Inter Branch Update 254696099 - ARROW BULK LOGISTICS (PTY) LTD 123123123

[--16/09/2015--]
22:50:00,[Results - Ivan],Success,   DID: 1071103,  ivan.brewis@gmail.com,  Subject: FBN Inter Branch Update 254696099 - ARROW BULK LOGISTICS (PTY) LTD 123123123

22:52:26,[Results - Ivan],Success,   DID: 1071103,  ivan.brewis@gmail.com,  Subject: FBN Inter Branch Update 254696099 - ARROW BULK LOGISTICS (PTY) LTD 123123123

22:57:37,[Results - Ivan],Success,   DID: 1071103,  ivan.brewis@gmail.com,  Subject: FBN Inter Branch Update 254696099 - ARROW BULK LOGISTICS (PTY) LTD 123123123

